snake_top_tb.vcd
$date
	Tue Mar 17 17:56:50 2026
$end
$version
	Icarus Verilog
$end
$timescale
	1ps
$end
$scope module snake_top_tb $end
$var wire 1 ! LCD_SYNC $end
$var wire 5 " LCD_R [4:0] $end
$var wire 1 # LCD_HYNC $end
$var wire 6 $ LCD_G [5:0] $end
$var wire 1 % LCD_DEN $end
$var wire 1 & LCD_CLK $end
$var wire 5 ' LCD_B [4:0] $end
$var wire 4 ( KEY_ROW [3:0] $end
$var reg 4 ) KEY_COL [3:0] $end
$var reg 1 * clk $end
$var reg 1 + reset_btn $end
$var integer 32 , hsync_count [31:0] $end
$var integer 32 - vsync_count [31:0] $end
$var integer 32 . white_pixels [31:0] $end
$scope module dut $end
$var wire 4 / KEY_COL [3:0] $end
$var wire 1 & LCD_CLK $end
$var wire 1 % LCD_DEN $end
$var wire 1 ! LCD_SYNC $end
$var wire 1 * clk $end
$var wire 1 0 frame_tick $end
$var wire 1 1 in_snake $end
$var wire 1 2 pll_locked $end
$var wire 1 3 reset $end
$var wire 1 + reset_btn $end
$var wire 1 4 sys_reset $end
$var wire 1 5 vsync_int $end
$var wire 10 6 pixel_y [9:0] $end
$var wire 10 7 pixel_x [9:0] $end
$var wire 1 8 key_up $end
$var wire 1 9 key_right $end
$var wire 1 : key_left $end
$var wire 1 ; key_down $end
$var wire 10 < head_py [9:0] $end
$var wire 10 = head_px [9:0] $end
$var wire 1 > de $end
$var wire 1 ? clk_pixel $end
$var wire 5 @ LCD_R [4:0] $end
$var wire 1 # LCD_HYNC $end
$var wire 6 A LCD_G [5:0] $end
$var wire 5 B LCD_B [4:0] $end
$var wire 4 C KEY_ROW [3:0] $end
$var parameter 32 D BORDER $end
$var parameter 32 E CELL_SIZE $end
$var parameter 2 F DIR_DOWN $end
$var parameter 2 G DIR_LEFT $end
$var parameter 2 H DIR_RIGHT $end
$var parameter 2 I DIR_UP $end
$var parameter 32 J GRID_COLS $end
$var parameter 32 K GRID_ROWS $end
$var parameter 32 L SPEED $end
$var reg 2 M direction [1:0] $end
$var reg 4 N frame_cnt [3:0] $end
$var reg 5 O head_col [4:0] $end
$var reg 4 P head_row [3:0] $end
$var reg 1 Q vsync_d $end
$scope module u_keypad $end
$var wire 4 R col [3:0] $end
$var wire 1 4 reset $end
$var wire 1 ? clk $end
$var reg 4 S col_r0 [3:0] $end
$var reg 4 T col_r1 [3:0] $end
$var reg 4 U col_r2 [3:0] $end
$var reg 4 V col_r3 [3:0] $end
$var reg 1 ; key_down $end
$var reg 1 : key_left $end
$var reg 1 9 key_right $end
$var reg 1 8 key_up $end
$var reg 4 W row [3:0] $end
$var reg 2 X row_sel [1:0] $end
$var reg 15 Y scan_timer [14:0] $end
$upscope $end
$scope module u_lcd $end
$var wire 1 4 reset $end
$var wire 10 Z pixel_y [9:0] $end
$var wire 10 [ pixel_x [9:0] $end
$var wire 1 ? clk_pixel $end
$var parameter 32 \ H_ACTIVE $end
$var parameter 32 ] H_BACK_PORCH $end
$var parameter 32 ^ H_FRONT_PORCH $end
$var parameter 32 _ H_SYNC_PULSE $end
$var parameter 32 ` H_TOTAL $end
$var parameter 32 a V_ACTIVE $end
$var parameter 32 b V_BACK_PORCH $end
$var parameter 32 c V_FRONT_PORCH $end
$var parameter 32 d V_SYNC_PULSE $end
$var parameter 32 e V_TOTAL $end
$var reg 1 > de $end
$var reg 11 f h_count [10:0] $end
$var reg 1 # hsync $end
$var reg 10 g v_count [9:0] $end
$var reg 1 5 vsync $end
$upscope $end
$scope module u_pll $end
$var wire 1 * clk_27MHz $end
$var wire 1 ? clk_pixel $end
$var wire 1 2 pll_locked $end
$var wire 1 3 reset $end
$var reg 1 ? clk_out $end
$upscope $end
$upscope $end
$upscope $end
$enddefinitions $end
$comment Show the parameter values. $end
$dumpall
b1000001101 e
b10 d
b1010 c
b100001 b
b111100000 a
b10000100000 `
b10000000 _
b101000 ^
b1011000 ]
b1100100000 \
b1111 L
b1111 K
b11001 J
b10 I
b0 H
b1 G
b11 F
b100000 E
b1 D
$end
#0
$dumpvars
b0 g
b0 f
b0 [
b0 Z
b0 Y
b0 X
b1 W
b0 V
b0 U
b0 T
b0 S
b0 R
1Q
b111 P
b1100 O
b0 N
b0 M
b1 C
b0 B
b0 A
b0 @
0?
0>
b110000000 =
b11100000 <
0;
0:
09
08
b0 7
b0 6
15
14
13
12
01
00
b0 /
b0 .
b0 -
b0 ,
0+
0*
b0 )
b1 (
b0 '
0&
0%
b0 $
1#
b0 "
1!
$end
#15000
1&
1?
#18500
1*
#30000
0&
0?
#37000
0*
#45000
1&
1?
#55500
1*
#60000
0&
0?
#74000
0*
#75000
1&
1?
#90000
0&
0?
#92500
1*
#105000
1&
1?
#111000
0*
#120000
0&
0?
#129500
1*
#135000
1&
1?
#148000
0*
#150000
0&
0?
#165000
1&
1?
#166500
1*
#180000
0&
0?
#185000
0*
#195000
1&
1?
#200000
04
03
1+
#203500
1*
#210000
0&
0?
#222000
0*
#225000
b1 7
b1 [
b1 f
1%
1>
b1 Y
1&
1?
#240000
0&
0?
#240500
1*
#255000
b10 7
b10 [
b10 Y
b10 f
1&
1?
#259000
0*
#270000
0&
0?
#277500
1*
#285000
b11 7
b11 [
b11 f
b11 Y
1&
1?
#296000
0*
#300000
0&
0?
#314500
1*
#315000
b100 7
b100 [
b100 Y
b100 f
1&
1?
#330000
0&
0?
#333000
0*
#345000
b101 7
b101 [
b101 f
b101 Y
1&
1?
#351500
1*
#360000
0&
0?
#370000
0*
#375000
b110 7
b110 [
b110 Y
b110 f
1&
1?
#388500
1*
#390000
0&
0?
#405000
b111 7
b111 [
b111 f
b111 Y
1&
1?
#407000
0*
#420000
0&
0?
#425500
1*
#435000
b1000 7
b1000 [
b1000 Y
b1000 f
1&
1?
#444000
0*
#450000
0&
0?
#462500
1*
#465000
b1001 7
b1001 [
b1001 f
b1001 Y
1&
1?
#480000
0&
0?
#481000
0*
#495000
b1010 7
b1010 [
b1010 Y
b1010 f
1&
1?
#499500
1*
#510000
0&
0?
#518000
0*
#525000
b1011 7
b1011 [
b1011 f
b1011 Y
1&
1?
#536500
1*
#540000
0&
0?
#555000
b1100 7
b1100 [
b1100 Y
b1100 f
1&
1?
0*
#570000
0&
0?
#573500
1*
#585000
b1101 7
b1101 [
b1101 f
b1101 Y
1&
1?
#592000
0*
#600000
0&
0?
#610500
1*
#615000
b1110 7
b1110 [
b1110 Y
b1110 f
1&
1?
#629000
0*
#630000
0&
0?
#645000
b1111 7
b1111 [
b1111 f
b1111 Y
1&
1?
#647500
1*
#660000
0&
0?
#666000
0*
#675000
b10000 7
b10000 [
b10000 Y
b10000 f
1&
1?
#684500
1*
#690000
0&
0?
#703000
0*
#705000
b10001 7
b10001 [
b10001 f
b10001 Y
1&
1?
#720000
0&
0?
#721500
1*
#735000
b10010 7
b10010 [
b10010 Y
b10010 f
1&
1?
#740000
0*
#750000
0&
0?
#758500
1*
#765000
b10011 7
b10011 [
b10011 f
b10011 Y
1&
1?
#777000
0*
#780000
0&
0?
#795000
b10100 7
b10100 [
b10100 Y
b10100 f
1&
1?
#795500
1*
#810000
0&
0?
#814000
0*
#825000
b10101 7
b10101 [
b10101 f
b10101 Y
1&
1?
#832500
1*
#840000
0&
0?
#851000
0*
#855000
b10110 7
b10110 [
b10110 Y
b10110 f
1&
1?
#869500
1*
#870000
0&
0?
#885000
b10111 7
b10111 [
b10111 f
b10111 Y
1&
1?
#888000
0*
#900000
0&
0?
#906500
1*
#915000
b11000 7
b11000 [
b11000 Y
b11000 f
1&
1?
#925000
0*
#930000
0&
0?
#943500
1*
#945000
b11001 7
b11001 [
b11001 f
b11001 Y
1&
1?
#960000
0&
0?
#962000
0*
#975000
b11010 7
b11010 [
b11010 Y
b11010 f
1&
1?
#980500
1*
#990000
0&
0?
#999000
0*
#1005000
b11011 7
b11011 [
b11011 f
b11011 Y
1&
1?
#1017500
1*
#1020000
0&
0?
#1035000
b11100 7
b11100 [
b11100 Y
b11100 f
1&
1?
#1036000
0*
#1050000
0&
0?
#1054500
1*
#1065000
b11101 7
b11101 [
b11101 f
b11101 Y
1&
1?
#1073000
0*
#1080000
0&
0?
#1091500
1*
#1095000
b11110 7
b11110 [
b11110 Y
b11110 f
1&
1?
#1110000
0&
0?
0*
#1125000
b11111 7
b11111 [
b11111 f
b11111 Y
1&
1?
#1128500
1*
#1140000
0&
0?
#1147000
0*
#1155000
b100000 7
b100000 [
b100000 Y
b100000 f
1&
1?
#1165500
1*
#1170000
0&
0?
#1184000
0*
#1185000
b100001 7
b100001 [
b100001 f
b100001 Y
1&
1?
#1200000
0&
0?
#1202500
1*
#1215000
b100010 7
b100010 [
b100010 Y
b100010 f
1&
1?
#1221000
0*
#1230000
0&
0?
#1239500
1*
#1245000
b100011 7
b100011 [
b100011 f
b100011 Y
1&
1?
#1258000
0*
#1260000
0&
0?
#1275000
b100100 7
b100100 [
b100100 Y
b100100 f
1&
1?
#1276500
1*
#1290000
0&
0?
#1295000
0*
#1305000
b100101 7
b100101 [
b100101 f
b100101 Y
1&
1?
#1313500
1*
#1320000
0&
0?
#1332000
0*
#1335000
b100110 7
b100110 [
b100110 Y
b100110 f
1&
1?
#1350000
0&
0?
#1350500
1*
#1365000
b100111 7
b100111 [
b100111 f
b100111 Y
1&
1?
#1369000
0*
#1380000
0&
0?
#1387500
1*
#1395000
b101000 7
b101000 [
b101000 Y
b101000 f
1&
1?
#1406000
0*
#1410000
0&
0?
#1424500
1*
#1425000
b101001 7
b101001 [
b101001 f
b101001 Y
1&
1?
#1440000
0&
0?
#1443000
0*
#1455000
b101010 7
b101010 [
b101010 Y
b101010 f
1&
1?
#1461500
1*
#1470000
0&
0?
#1480000
0*
#1485000
b101011 7
b101011 [
b101011 f
b101011 Y
1&
1?
#1498500
1*
#1500000
0&
0?
#1515000
b101100 7
b101100 [
b101100 Y
b101100 f
1&
1?
#1517000
0*
#1530000
0&
0?
#1535500
1*
#1545000
b101101 7
b101101 [
b101101 f
b101101 Y
1&
1?
#1554000
0*
#1560000
0&
0?
#1572500
1*
#1575000
b101110 7
b101110 [
b101110 Y
b101110 f
1&
1?
#1590000
0&
0?
#1591000
0*
#1605000
b101111 7
b101111 [
b101111 f
b101111 Y
1&
1?
#1609500
1*
#1620000
0&
0?
#1628000
0*
#1635000
b110000 7
b110000 [
b110000 Y
b110000 f
1&
1?
#1646500
1*
#1650000
0&
0?
#1665000
b110001 7
b110001 [
b110001 f
b110001 Y
1&
1?
0*
#1680000
0&
0?
#1683500
1*
#1695000
b110010 7
b110010 [
b110010 Y
b110010 f
1&
1?
#1702000
0*
#1710000
0&
0?
#1720500
1*
#1725000
b110011 7
b110011 [
b110011 f
b110011 Y
1&
1?
#1739000
0*
#1740000
0&
0?
#1755000
b110100 7
b110100 [
b110100 Y
b110100 f
1&
1?
#1757500
1*
#1770000
0&
0?
#1776000
0*
#1785000
b110101 7
b110101 [
b110101 f
b110101 Y
1&
1?
#1794500
1*
#1800000
0&
0?
#1813000
0*
#1815000
b110110 7
b110110 [
b110110 Y
b110110 f
1&
1?
#1830000
0&
0?
#1831500
1*
#1845000
b110111 7
b110111 [
b110111 f
b110111 Y
1&
1?
#1850000
0*
#1860000
0&
0?
#1868500
1*
#1875000
b111000 7
b111000 [
b111000 Y
b111000 f
1&
1?
#1887000
0*
#1890000
0&
0?
#1905000
b111001 7
b111001 [
b111001 f
b111001 Y
1&
1?
#1905500
1*
#1920000
0&
0?
#1924000
0*
#1935000
b111010 7
b111010 [
b111010 Y
b111010 f
1&
1?
#1942500
1*
#1950000
0&
0?
#1961000
0*
#1965000
b111011 7
b111011 [
b111011 f
b111011 Y
1&
1?
#1979500
1*
#1980000
0&
0?
#1995000
b111100 7
b111100 [
b111100 Y
b111100 f
1&
1?
#1998000
0*
#2010000
0&
0?
#2016500
1*
#2025000
b111101 7
b111101 [
b111101 f
b111101 Y
1&
1?
#2035000
0*
#2040000
0&
0?
#2053500
1*
#2055000
b111110 7
b111110 [
b111110 Y
b111110 f
1&
1?
#2070000
0&
0?
#2072000
0*
#2085000
b111111 7
b111111 [
b111111 f
b111111 Y
1&
1?
#2090500
1*
#2100000
0&
0?
#2109000
0*
#2115000
b1000000 7
b1000000 [
b1000000 Y
b1000000 f
1&
1?
#2127500
1*
#2130000
0&
0?
#2145000
b1000001 7
b1000001 [
b1000001 f
b1000001 Y
1&
1?
#2146000
0*
#2160000
0&
0?
#2164500
1*
#2175000
b1000010 7
b1000010 [
b1000010 Y
b1000010 f
1&
1?
#2183000
0*
#2190000
0&
0?
#2201500
1*
#2205000
b1000011 7
b1000011 [
b1000011 f
b1000011 Y
1&
1?
#2220000
0&
0?
0*
#2235000
b1000100 7
b1000100 [
b1000100 Y
b1000100 f
1&
1?
#2238500
1*
#2250000
0&
0?
#2257000
0*
#2265000
b1000101 7
b1000101 [
b1000101 f
b1000101 Y
1&
1?
#2275500
1*
#2280000
0&
0?
#2294000
0*
#2295000
b1000110 7
b1000110 [
b1000110 Y
b1000110 f
1&
1?
#2310000
0&
0?
#2312500
1*
#2325000
b1000111 7
b1000111 [
b1000111 f
b1000111 Y
1&
1?
#2331000
0*
#2340000
0&
0?
#2349500
1*
#2355000
b1001000 7
b1001000 [
b1001000 Y
b1001000 f
1&
1?
#2368000
0*
#2370000
0&
0?
#2385000
b1001001 7
b1001001 [
b1001001 f
b1001001 Y
1&
1?
#2386500
1*
#2400000
0&
0?
#2405000
0*
#2415000
b1001010 7
b1001010 [
b1001010 Y
b1001010 f
1&
1?
#2423500
1*
#2430000
0&
0?
#2442000
0*
#2445000
b1001011 7
b1001011 [
b1001011 f
b1001011 Y
1&
1?
#2460000
0&
0?
#2460500
1*
#2475000
b1001100 7
b1001100 [
b1001100 Y
b1001100 f
1&
1?
#2479000
0*
#2490000
0&
0?
#2497500
1*
#2505000
b1001101 7
b1001101 [
b1001101 f
b1001101 Y
1&
1?
#2516000
0*
#2520000
0&
0?
#2534500
1*
#2535000
b1001110 7
b1001110 [
b1001110 Y
b1001110 f
1&
1?
#2550000
0&
0?
#2553000
0*
#2565000
b1001111 7
b1001111 [
b1001111 f
b1001111 Y
1&
1?
#2571500
1*
#2580000
0&
0?
#2590000
0*
#2595000
b1010000 7
b1010000 [
b1010000 Y
b1010000 f
1&
1?
#2608500
1*
#2610000
0&
0?
#2625000
b1010001 7
b1010001 [
b1010001 f
b1010001 Y
1&
1?
#2627000
0*
#2640000
0&
0?
#2645500
1*
#2655000
b1010010 7
b1010010 [
b1010010 Y
b1010010 f
1&
1?
#2664000
0*
#2670000
0&
0?
#2682500
1*
#2685000
b1010011 7
b1010011 [
b1010011 f
b1010011 Y
1&
1?
#2700000
0&
0?
#2701000
0*
#2715000
b1010100 7
b1010100 [
b1010100 Y
b1010100 f
1&
1?
#2719500
1*
#2730000
0&
0?
#2738000
0*
#2745000
b1010101 7
b1010101 [
b1010101 f
b1010101 Y
1&
1?
#2756500
1*
#2760000
0&
0?
#2775000
b1010110 7
b1010110 [
b1010110 Y
b1010110 f
1&
1?
0*
#2790000
0&
0?
#2793500
1*
#2805000
b1010111 7
b1010111 [
b1010111 f
b1010111 Y
1&
1?
#2812000
0*
#2820000
0&
0?
#2830500
1*
#2835000
b1011000 7
b1011000 [
b1011000 Y
b1011000 f
1&
1?
#2849000
0*
#2850000
0&
0?
#2865000
b1011001 7
b1011001 [
b1011001 f
b1011001 Y
1&
1?
#2867500
1*
#2880000
0&
0?
#2886000
0*
#2895000
b1011010 7
b1011010 [
b1011010 Y
b1011010 f
1&
1?
#2904500
1*
#2910000
0&
0?
#2923000
0*
#2925000
b1011011 7
b1011011 [
b1011011 f
b1011011 Y
1&
1?
#2940000
0&
0?
#2941500
1*
#2955000
b1011100 7
b1011100 [
b1011100 Y
b1011100 f
1&
1?
#2960000
0*
#2970000
0&
0?
#2978500
1*
#2985000
b1011101 7
b1011101 [
b1011101 f
b1011101 Y
1&
1?
#2997000
0*
#3000000
0&
0?
#3015000
b1011110 7
b1011110 [
b1011110 Y
b1011110 f
1&
1?
#3015500
1*
#3030000
0&
0?
#3034000
0*
#3045000
b1011111 7
b1011111 [
b1011111 f
b1011111 Y
1&
1?
#3052500
1*
#3060000
0&
0?
#3071000
0*
#3075000
b1100000 7
b1100000 [
b1100000 Y
b1100000 f
1&
1?
#3089500
1*
#3090000
0&
0?
#3105000
b1100001 7
b1100001 [
b1100001 f
b1100001 Y
1&
1?
#3108000
0*
#3120000
0&
0?
#3126500
1*
#3135000
b1100010 7
b1100010 [
b1100010 Y
b1100010 f
1&
1?
#3145000
0*
#3150000
0&
0?
#3163500
1*
#3165000
b1100011 7
b1100011 [
b1100011 f
b1100011 Y
1&
1?
#3180000
0&
0?
#3182000
0*
#3195000
b1100100 7
b1100100 [
b1100100 Y
b1100100 f
1&
1?
#3200500
1*
#3210000
0&
0?
#3219000
0*
#3225000
b1100101 7
b1100101 [
b1100101 f
b1100101 Y
1&
1?
#3237500
1*
#3240000
0&
0?
#3255000
b1100110 7
b1100110 [
b1100110 Y
b1100110 f
1&
1?
#3256000
0*
#3270000
0&
0?
#3274500
1*
#3285000
b1100111 7
b1100111 [
b1100111 f
b1100111 Y
1&
1?
#3293000
0*
#3300000
0&
0?
#3311500
1*
#3315000
b1101000 7
b1101000 [
b1101000 Y
b1101000 f
1&
1?
#3330000
0&
0?
0*
#3345000
b1101001 7
b1101001 [
b1101001 f
b1101001 Y
1&
1?
#3348500
1*
#3360000
0&
0?
#3367000
0*
#3375000
b1101010 7
b1101010 [
b1101010 Y
b1101010 f
1&
1?
#3385500
1*
#3390000
0&
0?
#3404000
0*
#3405000
b1101011 7
b1101011 [
b1101011 f
b1101011 Y
1&
1?
#3420000
0&
0?
#3422500
1*
#3435000
b1101100 7
b1101100 [
b1101100 Y
b1101100 f
1&
1?
#3441000
0*
#3450000
0&
0?
#3459500
1*
#3465000
b1101101 7
b1101101 [
b1101101 f
b1101101 Y
1&
1?
#3478000
0*
#3480000
0&
0?
#3495000
b1101110 7
b1101110 [
b1101110 Y
b1101110 f
1&
1?
#3496500
1*
#3510000
0&
0?
#3515000
0*
#3525000
b1101111 7
b1101111 [
b1101111 f
b1101111 Y
1&
1?
#3533500
1*
#3540000
0&
0?
#3552000
0*
#3555000
b1110000 7
b1110000 [
b1110000 Y
b1110000 f
1&
1?
#3570000
0&
0?
#3570500
1*
#3585000
b1110001 7
b1110001 [
b1110001 f
b1110001 Y
1&
1?
#3589000
0*
#3600000
0&
0?
#3607500
1*
#3615000
b1110010 7
b1110010 [
b1110010 Y
b1110010 f
1&
1?
#3626000
0*
#3630000
0&
0?
#3644500
1*
#3645000
b1110011 7
b1110011 [
b1110011 f
b1110011 Y
1&
1?
#3660000
0&
0?
#3663000
0*
#3675000
b1110100 7
b1110100 [
b1110100 Y
b1110100 f
1&
1?
#3681500
1*
#3690000
0&
0?
#3700000
0*
#3705000
b1110101 7
b1110101 [
b1110101 f
b1110101 Y
1&
1?
#3718500
1*
#3720000
0&
0?
#3735000
b1110110 7
b1110110 [
b1110110 Y
b1110110 f
1&
1?
#3737000
0*
#3750000
0&
0?
#3755500
1*
#3765000
b1110111 7
b1110111 [
b1110111 f
b1110111 Y
1&
1?
#3774000
0*
#3780000
0&
0?
#3792500
1*
#3795000
b1111000 7
b1111000 [
b1111000 Y
b1111000 f
1&
1?
#3810000
0&
0?
#3811000
0*
#3825000
b1111001 7
b1111001 [
b1111001 f
b1111001 Y
1&
1?
#3829500
1*
#3840000
0&
0?
#3848000
0*
#3855000
b1111010 7
b1111010 [
b1111010 Y
b1111010 f
1&
1?
#3866500
1*
#3870000
0&
0?
#3885000
b1111011 7
b1111011 [
b1111011 f
b1111011 Y
1&
1?
0*
#3900000
0&
0?
#3903500
1*
#3915000
b1111100 7
b1111100 [
b1111100 Y
b1111100 f
1&
1?
#3922000
0*
#3930000
0&
0?
#3940500
1*
#3945000
b1111101 7
b1111101 [
b1111101 f
b1111101 Y
1&
1?
#3959000
0*
#3960000
0&
0?
#3975000
b1111110 7
b1111110 [
b1111110 Y
b1111110 f
1&
1?
#3977500
1*
#3990000
0&
0?
#3996000
0*
#4005000
b1111111 7
b1111111 [
b1111111 f
b1111111 Y
1&
1?
#4014500
1*
#4020000
0&
0?
#4033000
0*
#4035000
b10000000 7
b10000000 [
b10000000 Y
b10000000 f
1&
1?
#4050000
0&
0?
#4051500
1*
#4065000
b10000001 7
b10000001 [
b10000001 f
b10000001 Y
1&
1?
#4070000
0*
#4080000
0&
0?
#4088500
1*
#4095000
b10000010 7
b10000010 [
b10000010 Y
b10000010 f
1&
1?
#4107000
0*
#4110000
0&
0?
#4125000
b10000011 7
b10000011 [
b10000011 f
b10000011 Y
1&
1?
#4125500
1*
#4140000
0&
0?
#4144000
0*
#4155000
b10000100 7
b10000100 [
b10000100 Y
b10000100 f
1&
1?
#4162500
1*
#4170000
0&
0?
#4181000
0*
#4185000
b10000101 7
b10000101 [
b10000101 f
b10000101 Y
1&
1?
#4199500
1*
#4200000
0&
0?
#4215000
b10000110 7
b10000110 [
b10000110 Y
b10000110 f
1&
1?
#4218000
0*
#4230000
0&
0?
#4236500
1*
#4245000
b10000111 7
b10000111 [
b10000111 f
b10000111 Y
1&
1?
#4255000
0*
#4260000
0&
0?
#4273500
1*
#4275000
b10001000 7
b10001000 [
b10001000 Y
b10001000 f
1&
1?
#4290000
0&
0?
#4292000
0*
#4305000
b10001001 7
b10001001 [
b10001001 f
b10001001 Y
1&
1?
#4310500
1*
#4320000
0&
0?
#4329000
0*
#4335000
b10001010 7
b10001010 [
b10001010 Y
b10001010 f
1&
1?
#4347500
1*
#4350000
0&
0?
#4365000
b10001011 7
b10001011 [
b10001011 f
b10001011 Y
1&
1?
#4366000
0*
#4380000
0&
0?
#4384500
1*
#4395000
b10001100 7
b10001100 [
b10001100 Y
b10001100 f
1&
1?
#4403000
0*
#4410000
0&
0?
#4421500
1*
#4425000
b10001101 7
b10001101 [
b10001101 f
b10001101 Y
1&
1?
#4440000
0&
0?
0*
#4455000
b10001110 7
b10001110 [
b10001110 Y
b10001110 f
1&
1?
#4458500
1*
#4470000
0&
0?
#4477000
0*
#4485000
b10001111 7
b10001111 [
b10001111 f
b10001111 Y
1&
1?
#4495500
1*
#4500000
0&
0?
#4514000
0*
#4515000
b10010000 7
b10010000 [
b10010000 Y
b10010000 f
1&
1?
#4530000
0&
0?
#4532500
1*
#4545000
b10010001 7
b10010001 [
b10010001 f
b10010001 Y
1&
1?
#4551000
0*
#4560000
0&
0?
#4569500
1*
#4575000
b10010010 7
b10010010 [
b10010010 Y
b10010010 f
1&
1?
#4588000
0*
#4590000
0&
0?
#4605000
b10010011 7
b10010011 [
b10010011 f
b10010011 Y
1&
1?
#4606500
1*
#4620000
0&
0?
#4625000
0*
#4635000
b10010100 7
b10010100 [
b10010100 Y
b10010100 f
1&
1?
#4643500
1*
#4650000
0&
0?
#4662000
0*
#4665000
b10010101 7
b10010101 [
b10010101 f
b10010101 Y
1&
1?
#4680000
0&
0?
#4680500
1*
#4695000
b10010110 7
b10010110 [
b10010110 Y
b10010110 f
1&
1?
#4699000
0*
#4710000
0&
0?
#4717500
1*
#4725000
b10010111 7
b10010111 [
b10010111 f
b10010111 Y
1&
1?
#4736000
0*
#4740000
0&
0?
#4754500
1*
#4755000
b10011000 7
b10011000 [
b10011000 Y
b10011000 f
1&
1?
#4770000
0&
0?
#4773000
0*
#4785000
b10011001 7
b10011001 [
b10011001 f
b10011001 Y
1&
1?
#4791500
1*
#4800000
0&
0?
#4810000
0*
#4815000
b10011010 7
b10011010 [
b10011010 Y
b10011010 f
1&
1?
#4828500
1*
#4830000
0&
0?
#4845000
b10011011 7
b10011011 [
b10011011 f
b10011011 Y
1&
1?
#4847000
0*
#4860000
0&
0?
#4865500
1*
#4875000
b10011100 7
b10011100 [
b10011100 Y
b10011100 f
1&
1?
#4884000
0*
#4890000
0&
0?
#4902500
1*
#4905000
b10011101 7
b10011101 [
b10011101 f
b10011101 Y
1&
1?
#4920000
0&
0?
#4921000
0*
#4935000
b10011110 7
b10011110 [
b10011110 Y
b10011110 f
1&
1?
#4939500
1*
#4950000
0&
0?
#4958000
0*
#4965000
b10011111 7
b10011111 [
b10011111 f
b10011111 Y
1&
1?
#4976500
1*
#4980000
0&
0?
#4995000
b10100000 7
b10100000 [
b10100000 Y
b10100000 f
1&
1?
0*
#5010000
0&
0?
#5013500
1*
#5025000
b10100001 7
b10100001 [
b10100001 f
b10100001 Y
1&
1?
#5032000
0*
#5040000
0&
0?
#5050500
1*
#5055000
b10100010 7
b10100010 [
b10100010 Y
b10100010 f
1&
1?
#5069000
0*
#5070000
0&
0?
#5085000
b10100011 7
b10100011 [
b10100011 f
b10100011 Y
1&
1?
#5087500
1*
#5100000
0&
0?
#5106000
0*
#5115000
b10100100 7
b10100100 [
b10100100 Y
b10100100 f
1&
1?
#5124500
1*
#5130000
0&
0?
#5143000
0*
#5145000
b10100101 7
b10100101 [
b10100101 f
b10100101 Y
1&
1?
#5160000
0&
0?
#5161500
1*
#5175000
b10100110 7
b10100110 [
b10100110 Y
b10100110 f
1&
1?
#5180000
0*
#5190000
0&
0?
#5198500
1*
#5205000
b10100111 7
b10100111 [
b10100111 f
b10100111 Y
1&
1?
#5217000
0*
#5220000
0&
0?
#5235000
b10101000 7
b10101000 [
b10101000 Y
b10101000 f
1&
1?
#5235500
1*
#5250000
0&
0?
#5254000
0*
#5265000
b10101001 7
b10101001 [
b10101001 f
b10101001 Y
1&
1?
#5272500
1*
#5280000
0&
0?
#5291000
0*
#5295000
b10101010 7
b10101010 [
b10101010 Y
b10101010 f
1&
1?
#5309500
1*
#5310000
0&
0?
#5325000
b10101011 7
b10101011 [
b10101011 f
b10101011 Y
1&
1?
#5328000
0*
#5340000
0&
0?
#5346500
1*
#5355000
b10101100 7
b10101100 [
b10101100 Y
b10101100 f
1&
1?
#5365000
0*
#5370000
0&
0?
#5383500
1*
#5385000
b10101101 7
b10101101 [
b10101101 f
b10101101 Y
1&
1?
#5400000
0&
0?
#5402000
0*
#5415000
b10101110 7
b10101110 [
b10101110 Y
b10101110 f
1&
1?
#5420500
1*
#5430000
0&
0?
#5439000
0*
#5445000
b10101111 7
b10101111 [
b10101111 f
b10101111 Y
1&
1?
#5457500
1*
#5460000
0&
0?
#5475000
b10110000 7
b10110000 [
b10110000 Y
b10110000 f
1&
1?
#5476000
0*
#5490000
0&
0?
#5494500
1*
#5505000
b10110001 7
b10110001 [
b10110001 f
b10110001 Y
1&
1?
#5513000
0*
#5520000
0&
0?
#5531500
1*
#5535000
b10110010 7
b10110010 [
b10110010 Y
b10110010 f
1&
1?
#5550000
0&
0?
0*
#5565000
b10110011 7
b10110011 [
b10110011 f
b10110011 Y
1&
1?
#5568500
1*
#5580000
0&
0?
#5587000
0*
#5595000
b10110100 7
b10110100 [
b10110100 Y
b10110100 f
1&
1?
#5605500
1*
#5610000
0&
0?
#5624000
0*
#5625000
b10110101 7
b10110101 [
b10110101 f
b10110101 Y
1&
1?
#5640000
0&
0?
#5642500
1*
#5655000
b10110110 7
b10110110 [
b10110110 Y
b10110110 f
1&
1?
#5661000
0*
#5670000
0&
0?
#5679500
1*
#5685000
b10110111 7
b10110111 [
b10110111 f
b10110111 Y
1&
1?
#5698000
0*
#5700000
0&
0?
#5715000
b10111000 7
b10111000 [
b10111000 Y
b10111000 f
1&
1?
#5716500
1*
#5730000
0&
0?
#5735000
0*
#5745000
b10111001 7
b10111001 [
b10111001 f
b10111001 Y
1&
1?
#5753500
1*
#5760000
0&
0?
#5772000
0*
#5775000
b10111010 7
b10111010 [
b10111010 Y
b10111010 f
1&
1?
#5790000
0&
0?
#5790500
1*
#5805000
b10111011 7
b10111011 [
b10111011 f
b10111011 Y
1&
1?
#5809000
0*
#5820000
0&
0?
#5827500
1*
#5835000
b10111100 7
b10111100 [
b10111100 Y
b10111100 f
1&
1?
#5846000
0*
#5850000
0&
0?
#5864500
1*
#5865000
b10111101 7
b10111101 [
b10111101 f
b10111101 Y
1&
1?
#5880000
0&
0?
#5883000
0*
#5895000
b10111110 7
b10111110 [
b10111110 Y
b10111110 f
1&
1?
#5901500
1*
#5910000
0&
0?
#5920000
0*
#5925000
b10111111 7
b10111111 [
b10111111 f
b10111111 Y
1&
1?
#5938500
1*
#5940000
0&
0?
#5955000
b11000000 7
b11000000 [
b11000000 Y
b11000000 f
1&
1?
#5957000
0*
#5970000
0&
0?
#5975500
1*
#5985000
b11000001 7
b11000001 [
b11000001 f
b11000001 Y
1&
1?
#5994000
0*
#6000000
0&
0?
#6012500
1*
#6015000
b11000010 7
b11000010 [
b11000010 Y
b11000010 f
1&
1?
#6030000
0&
0?
#6031000
0*
#6045000
b11000011 7
b11000011 [
b11000011 f
b11000011 Y
1&
1?
#6049500
1*
#6060000
0&
0?
#6068000
0*
#6075000
b11000100 7
b11000100 [
b11000100 Y
b11000100 f
1&
1?
#6086500
1*
#6090000
0&
0?
#6105000
b11000101 7
b11000101 [
b11000101 f
b11000101 Y
1&
1?
0*
#6120000
0&
0?
#6123500
1*
#6135000
b11000110 7
b11000110 [
b11000110 Y
b11000110 f
1&
1?
#6142000
0*
#6150000
0&
0?
#6160500
1*
#6165000
b11000111 7
b11000111 [
b11000111 f
b11000111 Y
1&
1?
#6179000
0*
#6180000
0&
0?
#6195000
b11001000 7
b11001000 [
b11001000 Y
b11001000 f
1&
1?
#6197500
1*
#6210000
0&
0?
#6216000
0*
#6225000
b11001001 7
b11001001 [
b11001001 f
b11001001 Y
1&
1?
#6234500
1*
#6240000
0&
0?
#6253000
0*
#6255000
b11001010 7
b11001010 [
b11001010 Y
b11001010 f
1&
1?
