snake_top_tb.vcd
$date
	Sat Apr 04 19:07:57 2026
$end
$version
	Icarus Verilog
$end
$timescale
	1ps
$end
$scope module snake_top_tb $end
$var wire 1 ! LCD_VSYNC $end
$var wire 5 " LCD_R [4:0] $end
$var wire 1 # LCD_HSYNC $end
$var wire 6 $ LCD_G [5:0] $end
$var wire 1 % LCD_DEN $end
$var wire 1 & LCD_CLK $end
$var wire 5 ' LCD_B [4:0] $end
$var wire 4 ( KEY_ROW [3:0] $end
$var parameter 32 ) ONE_FRAME $end
$var reg 4 * KEY_COL [3:0] $end
$var reg 1 + clk $end
$var reg 1 , reset_btn $end
$var integer 32 - anyred_pixels [31:0] $end
$var integer 32 . bad_pixels [31:0] $end
$var integer 32 / green_pixels [31:0] $end
$var integer 32 0 red_pixels [31:0] $end
$var integer 32 1 vsync_count [31:0] $end
$var integer 32 2 white_pixels [31:0] $end
$scope module dut $end
$var wire 4 3 KEY_COL [3:0] $end
$var wire 5 4 LCD_B [4:0] $end
$var wire 1 & LCD_CLK $end
$var wire 1 % LCD_DEN $end
$var wire 6 5 LCD_G [5:0] $end
$var wire 5 6 LCD_R [4:0] $end
$var wire 1 ! LCD_VSYNC $end
$var wire 1 + clk $end
$var wire 1 7 eating_food $end
$var wire 1 8 frame_tick $end
$var wire 1 9 gameover_pixel $end
$var wire 5 : head_col [4:0] $end
$var wire 4 ; head_row [3:0] $end
$var wire 1 < hit_body $end
$var wire 1 = hud_colon_pixel $end
$var wire 1 > hud_text_pixel $end
$var wire 1 ? idle_pixel $end
$var wire 1 @ in_interior $end
$var wire 1 A is_body $end
$var wire 1 B is_food $end
$var wire 1 C is_head $end
$var wire 16 D lfsr_next [15:0] $end
$var wire 1 E pause_pixel $end
$var wire 1 F pause_pressed $end
$var wire 1 G reset $end
$var wire 1 , reset_btn $end
$var wire 1 H score_pixel $end
$var wire 1 I start_pressed $end
$var wire 1 J sys_reset $end
$var wire 1 K vsync_int $end
$var wire 6 L tail_ptr [5:0] $end
$var wire 9 M tail_cidx [8:0] $end
$var wire 4 N sc_u [3:0] $end
$var wire 4 O sc_t [3:0] $end
$var wire 4 P sc_h [3:0] $end
$var wire 1 Q pll_locked $end
$var wire 10 R pixel_y [9:0] $end
$var wire 10 S pixel_x [9:0] $end
$var wire 9 T next_cidx [8:0] $end
$var wire 4 U ls_u [3:0] $end
$var wire 4 V ls_t [3:0] $end
$var wire 4 W ls_h [3:0] $end
$var wire 1 X key_up $end
$var wire 1 Y key_right $end
$var wire 1 Z key_restart $end
$var wire 1 [ key_pause $end
$var wire 1 \ key_left $end
$var wire 1 ] key_down $end
$var wire 1 ^ flash_on $end
$var wire 4 _ fc_row [3:0] $end
$var wire 5 ` fc_col [4:0] $end
$var wire 1 a de $end
$var wire 5 b cur_row5 [4:0] $end
$var wire 4 c cur_row [3:0] $end
$var wire 5 d cur_col [4:0] $end
$var wire 9 e cur_cidx [8:0] $end
$var wire 1 f clk_pixel $end
$var wire 4 g bs_u [3:0] $end
$var wire 4 h bs_t [3:0] $end
$var wire 4 i bs_h [3:0] $end
$var wire 1 # LCD_HSYNC $end
$var wire 4 j KEY_ROW [3:0] $end
$var parameter 32 k BORDER $end
$var parameter 32 l CELL_SIZE $end
$var parameter 2 m DIR_DOWN $end
$var parameter 2 n DIR_LEFT $end
$var parameter 2 o DIR_RIGHT $end
$var parameter 2 p DIR_UP $end
$var parameter 32 q GRID_COLS $end
$var parameter 32 r GRID_ROWS $end
$var parameter 32 s MAX_LEN $end
$var parameter 7 t RESTART_HOLD_FRAMES $end
$var parameter 2 u ST_GAME_OVER $end
$var parameter 2 v ST_IDLE $end
$var parameter 2 w ST_PLAYING $end
$var reg 8 x best_score [7:0] $end
$var reg 375 y body_map [374:0] $end
$var reg 2 z direction [1:0] $end
$var reg 5 { flash_cnt [4:0] $end
$var reg 1 | food_active $end
$var reg 5 } food_col [4:0] $end
$var reg 4 ~ food_row [3:0] $end
$var reg 4 !" frame_cnt [3:0] $end
$var reg 2 "" game_state [1:0] $end
$var reg 6 #" head_ptr [5:0] $end
$var reg 1 $" key_pause_prev $end
$var reg 8 %" last_score [7:0] $end
$var reg 16 &" lfsr [15:0] $end
$var reg 4 '" move_speed [3:0] $end
$var reg 5 (" next_col [4:0] $end
$var reg 4 )" next_row [3:0] $end
$var reg 1 *" paused $end
$var reg 5 +" pix_b [4:0] $end
$var reg 6 ," pix_g [5:0] $end
$var reg 5 -" pix_r [4:0] $end
$var reg 7 ." restart_hold_cnt [6:0] $end
$var reg 1 /" restart_latched $end
$var reg 8 0" score [7:0] $end
$var reg 6 1" sec_frame_cnt [5:0] $end
$var reg 7 2" snake_len [6:0] $end
$var reg 4 3" time_m_ones [3:0] $end
$var reg 4 4" time_m_tens [3:0] $end
$var reg 4 5" time_s_ones [3:0] $end
$var reg 4 6" time_s_tens [3:0] $end
$var reg 1 7" vsync_d $end
$scope function char_bitmap $end
$var reg 6 8" ch [5:0] $end
$upscope $end
$scope function cidx $end
$var reg 5 9" c [4:0] $end
$var reg 4 :" r [3:0] $end
$upscope $end
$scope function font_row_bits $end
$var reg 35 ;" bm [34:0] $end
$var reg 3 <" r [2:0] $end
$upscope $end
$scope function text_pix $end
$var reg 35 =" bm [34:0] $end
$var reg 6 >" ch [5:0] $end
$var reg 10 ?" cx [9:0] $end
$var reg 10 @" cy [9:0] $end
$var reg 3 A" fc [2:0] $end
$var reg 3 B" fr_v [2:0] $end
$var reg 10 C" px [9:0] $end
$var reg 10 D" py [9:0] $end
$var reg 5 E" rbits [4:0] $end
$var reg 10 F" rx [9:0] $end
$var reg 10 G" ry [9:0] $end
$upscope $end
$scope module u_keypad $end
$var wire 4 H" col [3:0] $end
$var wire 1 J reset $end
$var wire 1 f clk $end
$var reg 4 I" col_r0 [3:0] $end
$var reg 4 J" col_r1 [3:0] $end
$var reg 4 K" col_r2 [3:0] $end
$var reg 4 L" col_r3 [3:0] $end
$var reg 1 ] key_down $end
$var reg 1 \ key_left $end
$var reg 1 [ key_pause $end
$var reg 1 Z key_restart $end
$var reg 1 Y key_right $end
$var reg 1 X key_up $end
$var reg 4 M" row [3:0] $end
$var reg 2 N" row_sel [1:0] $end
$var reg 15 O" scan_timer [14:0] $end
$upscope $end
$scope module u_lcd $end
$var wire 1 J reset $end
$var wire 10 P" pixel_y [9:0] $end
$var wire 10 Q" pixel_x [9:0] $end
$var wire 1 f clk_pixel $end
$var parameter 32 R" H_ACTIVE $end
$var parameter 32 S" H_BACK_PORCH $end
$var parameter 32 T" H_FRONT_PORCH $end
$var parameter 32 U" H_SYNC_PULSE $end
$var parameter 32 V" H_TOTAL $end
$var parameter 32 W" V_ACTIVE $end
$var parameter 32 X" V_BACK_PORCH $end
$var parameter 32 Y" V_FRONT_PORCH $end
$var parameter 32 Z" V_SYNC_PULSE $end
$var parameter 32 [" V_TOTAL $end
$var reg 1 a de $end
$var reg 11 \" h_count [10:0] $end
$var reg 1 # hsync $end
$var reg 10 ]" v_count [9:0] $end
$var reg 1 K vsync $end
$upscope $end
$scope module u_pll $end
$var wire 1 + clk_27MHz $end
$var wire 1 G reset $end
$var reg 1 f clk_pixel $end
$var reg 1 Q pll_locked $end
$upscope $end
$upscope $end
$scope begin phase3 $end
$var reg 5 ^" pre_col [4:0] $end
$var reg 4 _" pre_row [3:0] $end
$upscope $end
$scope begin phase4 $end
$var reg 4 `" pre_row4 [3:0] $end
$upscope $end
$scope begin phase5 $end
$var reg 5 a" paused_col5 [4:0] $end
$var reg 4 b" paused_row5 [3:0] $end
$var reg 5 c" pre_col5 [4:0] $end
$var reg 4 d" pre_row5 [3:0] $end
$upscope $end
$scope begin phase6 $end
$upscope $end
$scope task force_one_move $end
$upscope $end
$scope task reset_counters $end
$upscope $end
$upscope $end
$enddefinitions $end
$comment Show the parameter values. $end
$dumpall
b1000001101 ["
b10 Z"
b1010 Y"
b100001 X"
b111100000 W"
b10000100000 V"
b10000000 U"
b101000 T"
b1011000 S"
b1100100000 R"
b1 w
b0 v
b10 u
b111100 t
b1000000 s
b1111 r
b11001 q
b10 p
b0 o
b1 n
b11 m
b100000 l
b1 k
b1000000110110011001000000 )
$end
#0
$dumpvars
bx d"
bx c"
bx b"
bx a"
bx `"
bx _"
bx ^"
b0 ]"
b0 \"
b0 Q"
b0 P"
b0 O"
b0 N"
b1 M"
b0 L"
b0 K"
b0 J"
b0 I"
b0 H"
b1011010100 G"
b1001100011 F"
bx E"
b0 D"
b0 C"
bx B"
bx A"
b100101100 @"
b110011101 ?"
b0 >"
bx ="
bx <"
bx ;"
b0 :"
b0 9"
bx 8"
17"
b0 6"
b0 5"
b0 4"
b0 3"
b11 2"
b0 1"
b0 0"
0/"
b0 ."
b0 -"
b0 ,"
b0 +"
0*"
b111 )"
b1101 ("
b1111 '"
b1010110011100001 &"
b0 %"
0$"
b0 #"
b0 ""
b0 !"
b111 ~
b10100 }
1|
b0 {
b0 z
b11100000000000000000000000000000000000000000000000000000000000000000000000000000000000000000000000000000000000000000000000000000000000000000000000000000000000000000000000000000000000000000 y
b0 x
b1 j
b0 i
b0 h
b0 g
0f
b0 e
b0 d
b0 c
b0 b
0a
b1 `
b1100 _
0^
0]
0\
0[
0Z
0Y
0X
b0 W
b0 V
b0 U
b10111100 T
b0 S
b0 R
0Q
b0 P
b0 O
b0 N
b10111001 M
b111110 L
1K
1J
0I
0H
1G
0F
0E
b1110001001110000 D
0C
0B
0A
0@
0?
0>
0=
0<
b111 ;
b1100 :
09
08
07
b0 6
b0 5
b0 4
b0 3
b0 2
b0 1
b0 0
b0 /
b0 .
b0 -
0,
0+
b0 *
b1 (
b0 '
0&
0%
b0 $
1#
b0 "
1!
$end
#15000
b11100000000000000000000000000000000000000000000000000000000000000000000000000000000000000000000000000000000000000000000000000000000000000000000000000000000000000000000000000000000000000000 y
1&
1f
#18500
1+
#30000
0&
0f
#37000
0+
#45000
b11100000000000000000000000000000000000000000000000000000000000000000000000000000000000000000000000000000000000000000000000000000000000000000000000000000000000000000000000000000000000000000 y
1&
1f
#55500
1+
#60000
0&
0f
#74000
0+
#75000
b11100000000000000000000000000000000000000000000000000000000000000000000000000000000000000000000000000000000000000000000000000000000000000000000000000000000000000000000000000000000000000000 y
1&
1f
#90000
0&
0f
#92500
1+
#105000
b11100000000000000000000000000000000000000000000000000000000000000000000000000000000000000000000000000000000000000000000000000000000000000000000000000000000000000000000000000000000000000000 y
1&
1f
#111000
0+
#120000
0&
0f
#129500
1+
#135000
b11100000000000000000000000000000000000000000000000000000000000000000000000000000000000000000000000000000000000000000000000000000000000000000000000000000000000000000000000000000000000000000 y
1&
1f
#148000
0+
#150000
0&
0f
#165000
b11100000000000000000000000000000000000000000000000000000000000000000000000000000000000000000000000000000000000000000000000000000000000000000000000000000000000000000000000000000000000000000 y
1&
1f
#166500
1+
#180000
0&
0f
#185000
0+
#195000
b11100000000000000000000000000000000000000000000000000000000000000000000000000000000000000000000000000000000000000000000000000000000000000000000000000000000000000000000000000000000000000000 y
1&
1f
#200000
0G
1,
#203500
0J
1Q
1+
#210000
0&
0f
#222000
0+
#225000
b1100100100 G"
b1001011110 F"
b1110 >"
b11011100 @"
b110100011 ?"
b1 C"
b111000100111000 D
b10000 `
b10 _
b1 S
b1 Q"
b1 \"
1%
1a
b1 O"
b1110001001110000 &"
1&
1f
#240000
0&
0f
#240500
1+
#255000
b11100010011100 D
b11000 `
b1 _
b1100100100 G"
b1001011111 F"
b1110 >"
b11011100 @"
b110100011 ?"
b10 C"
b10 S
b10 Q"
b111000100111000 &"
b10 O"
b10 \"
1&
1f
#259000
0+
#270000
0&
0f
#277500
1+
#285000
b1100100100 G"
b1001100000 F"
b1110 >"
b11011100 @"
b110100011 ?"
b11 C"
b1110001001110 D
b11 `
b1000 _
b11 S
b11 Q"
b11 \"
b11 O"
b11100010011100 &"
1&
1f
#296000
0+
#300000
0&
0f
#314500
1+
#315000
b111000100111 D
b1110 `
b1100 _
b1100100100 G"
b1001100001 F"
b1110 >"
b11011100 @"
b110100011 ?"
b100 C"
b100 S
b100 Q"
b1110001001110 &"
b100 O"
b100 \"
1&
1f
#330000
0&
0f
#333000
0+
#345000
b1100100100 G"
b1001100010 F"
b1110 >"
b11011100 @"
b110100011 ?"
b101 C"
b1011001100010011 D
b111 `
b1110 _
b101 S
b101 Q"
b101 \"
b101 O"
b111000100111 &"
1&
1f
#351500
1+
#360000
0&
0f
#370000
0+
#375000
b1110110110001001 D
b10011 `
b11 _
b1100100100 G"
b1001100011 F"
b1110 >"
b11011100 @"
b110100011 ?"
b110 C"
b110 S
b110 Q"
b1011001100010011 &"
b110 O"
b110 \"
1&
1f
#388500
1+
#390000
0&
0f
#405000
b1100100100 G"
b1001100100 F"
b1110 >"
b11011100 @"
b110100011 ?"
b111 C"
b1100001011000100 D
b1001 `
b1101 _
b111 S
b111 Q"
b111 \"
b111 O"
b1110110110001001 &"
1&
1f
#407000
0+
#420000
0&
0f
#425500
1+
#435000
b110000101100010 D
b100 `
b10 _
b1100100100 G"
b1001100101 F"
b1110 >"
b11011100 @"
b110100011 ?"
b1000 C"
b1000 S
b1000 Q"
b1100001011000100 &"
b1000 O"
b1000 \"
1&
1f
#444000
0+
#450000
0&
0f
#462500
1+
#465000
b1100100100 G"
b1001100110 F"
b1110 >"
b11011100 @"
b110100011 ?"
b1001 C"
b11000010110001 D
b10 `
b1 _
b1001 S
b1001 Q"
b1001 \"
b1001 O"
b110000101100010 &"
1&
1f
#480000
0&
0f
#481000
0+
#495000
b1010110001011000 D
b10001 `
b0 _
b1100100100 G"
b1001100111 F"
b1110 >"
b11011100 @"
b110100011 ?"
b1010 C"
b1010 S
b1010 Q"
b11000010110001 &"
b1010 O"
b1010 \"
1&
1f
#499500
1+
#510000
0&
0f
#518000
0+
#525000
b1100100100 G"
b1001101000 F"
b1110 >"
b11011100 @"
b110100011 ?"
b1011 C"
b101011000101100 D
b11000 `
b1100 _
b1011 S
b1011 Q"
b1011 \"
b1011 O"
b1010110001011000 &"
1&
1f
#536500
1+
#540000
0&
0f
#555000
b10101100010110 D
b1100 `
b110 _
b1100100100 G"
b1001101001 F"
b1110 >"
b11011100 @"
b110100011 ?"
b1100 C"
b1100 S
b1100 Q"
b101011000101100 &"
b1100 O"
b1100 \"
1&
1f
0+
#570000
0&
0f
#573500
1+
#585000
b1100100100 G"
b1001101010 F"
b1110 >"
b11011100 @"
b110100011 ?"
b1101 C"
b1010110001011 D
b10110 `
b1011 _
b1101 S
b1101 Q"
b1101 \"
b1101 O"
b10101100010110 &"
1&
1f
#592000
0+
#600000
0&
0f
#610500
1+
#615000
b1011111011000101 D
b1011 `
b101 _
b1100100100 G"
b1001101011 F"
b1110 >"
b11011100 @"
b110100011 ?"
b1110 C"
b1110 S
b1110 Q"
b1010110001011 &"
b1110 O"
b1110 \"
1&
1f
#629000
0+
#630000
0&
0f
#645000
b1100100100 G"
b1001101100 F"
b1110 >"
b11011100 @"
b110100011 ?"
b1111 C"
b1110101101100010 D
b101 `
b1110 _
b1111 S
b1111 Q"
b1111 \"
b1111 O"
b1011111011000101 &"
1&
1f
#647500
1+
#660000
0&
0f
#666000
0+
#675000
b111010110110001 D
b10 `
b1011 _
b1100100100 G"
b1001101101 F"
b1110 >"
b11011100 @"
b110100011 ?"
b10000 C"
b10000 S
b10000 Q"
b1110101101100010 &"
b10000 O"
b10000 \"
1&
1f
#684500
1+
#690000
0&
0f
#703000
0+
#705000
b1100100100 G"
b1001101110 F"
b1110 >"
b11011100 @"
b110100011 ?"
b10001 C"
b1000111011011000 D
b10001 `
b101 _
b10001 S
b10001 Q"
b10001 \"
b10001 O"
b111010110110001 &"
1&
1f
#720000
0&
0f
#721500
1+
#735000
b100011101101100 D
b11000 `
b1110 _
b1100100100 G"
b1001101111 F"
b1110 >"
b11011100 @"
b110100011 ?"
b10010 C"
b10010 S
b10010 Q"
b1000111011011000 &"
b10010 O"
b10010 \"
1&
1f
#740000
0+
#750000
0&
0f
#758500
1+
#765000
b1100100100 G"
b1001110000 F"
b1110 >"
b11011100 @"
b110100011 ?"
b10011 C"
b10001110110110 D
b1100 `
b111 _
b10011 S
b10011 Q"
b10011 \"
b10011 O"
b100011101101100 &"
1&
1f
#777000
0+
#780000
0&
0f
#795000
b1000111011011 D
b10110 `
b11 _
b1100100100 G"
b1001110001 F"
b1110 >"
b11011100 @"
b110100011 ?"
b10100 C"
b10100 S
b10100 Q"
b10001110110110 &"
b10100 O"
b10100 \"
1&
1f
#795500
1+
#810000
0&
0f
#814000
0+
#825000
b1100100100 G"
b1001110010 F"
b1110 >"
b11011100 @"
b110100011 ?"
b10101 C"
b1011110011101101 D
b10 `
b1 _
b10101 S
b10101 Q"
b10101 \"
b10101 O"
b1000111011011 &"
1&
1f
#832500
1+
#840000
0&
0f
#851000
0+
#855000
b1110101001110110 D
b1101 `
b1100 _
b1100100100 G"
b1001110011 F"
b1110 >"
b11011100 @"
b110100011 ?"
b10110 C"
b10110 S
b10110 Q"
b1011110011101101 &"
b10110 O"
b10110 \"
1&
1f
#869500
1+
#870000
0&
0f
#885000
b1100100100 G"
b1001110100 F"
b1110 >"
b11011100 @"
b110100011 ?"
b10111 C"
b111010100111011 D
b10110 `
b1010 _
b10111 S
b10111 Q"
b10111 \"
b10111 O"
b1110101001110110 &"
1&
1f
#888000
0+
#900000
0&
0f
#906500
1+
#915000
b1000111010011101 D
b10 `
b101 _
b1100100100 G"
b1001110101 F"
b1110 >"
b11011100 @"
b110100011 ?"
b11000 C"
b11000 S
b11000 Q"
b111010100111011 &"
b11000 O"
b11000 \"
1&
1f
#925000
0+
#930000
0&
0f
#943500
1+
#945000
b1100100100 G"
b1001110110 F"
b1110 >"
b11011100 @"
b110100011 ?"
b11001 C"
b1111001101001110 D
b100 `
b1110 _
b11001 S
b11001 Q"
b11001 \"
b11001 O"
b1000111010011101 &"
1&
1f
#960000
0&
0f
#962000
0+
#975000
b111100110100111 D
b1110 `
b11 _
b1100100100 G"
b1001110111 F"
b1110 >"
b11011100 @"
b110100011 ?"
b11010 C"
b11010 S
b11010 Q"
b1111001101001110 &"
b11010 O"
b11010 \"
1&
1f
#980500
1+
#990000
0&
0f
#999000
0+
#1005000
b1100100100 G"
b1001111000 F"
b1110 >"
b11011100 @"
b110100011 ?"
b11011 C"
b1000100011010011 D
b111 `
b1001 _
b11011 S
b11011 Q"
b11011 \"
b11011 O"
b111100110100111 &"
1&
1f
#1017500
1+
#1020000
0&
0f
#1035000
b1111000001101001 D
b10011 `
b1000 _
b1100100100 G"
b1001111001 F"
b1110 >"
b11011100 @"
b110100011 ?"
b11100 C"
b11100 S
b11100 Q"
b1000100011010011 &"
b11100 O"
b11100 \"
1&
1f
#1036000
0+
#1050000
0&
0f
#1054500
1+
#1065000
b1100100100 G"
b1001111010 F"
b1110 >"
b11011100 @"
b110100011 ?"
b11101 C"
b1100110000110100 D
b1001 `
b0 _
b11101 S
b11101 Q"
b11101 \"
b11101 O"
b1111000001101001 &"
1&
1f
#1073000
0+
#1080000
0&
0f
#1091500
1+
#1095000
b110011000011010 D
b10100 `
b1100 _
b1100100100 G"
b1001111011 F"
b1110 >"
b11011100 @"
b110100011 ?"
b11110 C"
b11110 S
b11110 Q"
b1100110000110100 &"
b11110 O"
b11110 \"
1&
1f
#1110000
0&
0f
0+
#1125000
b1100100100 G"
b1001111100 F"
b1110 >"
b11011100 @"
b110100011 ?"
b11111 C"
b11001100001101 D
b1 `
b110 _
b11111 S
b11111 Q"
b11111 \"
b11111 O"
b110011000011010 &"
1&
1f
#1128500
1+
#1140000
0&
0f
#1147000
0+
#1155000
b1 e
b1 9"
b1010110110000110 D
b1101 `
b11 _
b1100100100 G"
b1001111101 F"
b1110 >"
b11011100 @"
b110100011 ?"
b100000 C"
b1 d
b100000 S
b100000 Q"
b11001100001101 &"
b100000 O"
b100000 \"
1&
1f
#1165500
1+
#1170000
0&
0f
#1184000
0+
#1185000
b1100100100 G"
b1001111110 F"
b1110 >"
b11011100 @"
b110100011 ?"
b100001 C"
b101011011000011 D
b110 `
b1101 _
b100001 S
b100001 Q"
b100001 \"
b100001 O"
b1010110110000110 &"
1&
1f
#1200000
0&
0f
#1202500
1+
#1215000
b1001111101100001 D
b11 `
b110 _
b1100100100 G"
b1001111111 F"
b1110 >"
b11011100 @"
b110100011 ?"
b100010 C"
b100010 S
b100010 Q"
b101011011000011 &"
b100010 O"
b100010 \"
1&
1f
#1221000
0+
#1230000
0&
0f
#1239500
1+
#1245000
b1100100100 G"
b1010000000 F"
b1110 >"
b11011100 @"
b110100011 ?"
b100011 C"
b1111101110110000 D
b1 `
b0 _
b100011 S
b100011 Q"
b100011 \"
b100011 O"
b1001111101100001 &"
1&
1f
#1258000
0+
#1260000
0&
0f
#1275000
b111110111011000 D
b10000 `
b1011 _
b1100100100 G"
b1010000001 F"
b1110 >"
b11011100 @"
b110100011 ?"
b100100 C"
b100100 S
b100100 Q"
b1111101110110000 &"
b100100 O"
b100100 \"
1&
1f
#1276500
1+
#1290000
0&
0f
#1295000
0+
#1305000
b1100100100 G"
b1010000010 F"
b1110 >"
b11011100 @"
b110100011 ?"
b100101 C"
b11111011101100 D
b11000 `
b1101 _
b100101 S
b100101 Q"
b100101 \"
b100101 O"
b111110111011000 &"
1&
1f
#1313500
1+
#1320000
0&
0f
#1332000
0+
#1335000
b1111101110110 D
b1100 `
b1110 _
b1100100100 G"
b1010000011 F"
b1110 >"
b11011100 @"
b110100011 ?"
b100110 C"
b100110 S
b100110 Q"
b11111011101100 &"
b100110 O"
b100110 \"
1&
1f
#1350000
0&
0f
#1350500
1+
#1365000
b1100100100 G"
b1010000100 F"
b1110 >"
b11011100 @"
b110100011 ?"
b100111 C"
b111110111011 D
b10110 `
b0 _
b100111 S
b100111 Q"
b100111 \"
b100111 O"
b1111101110110 &"
1&
1f
#1369000
0+
#1380000
0&
0f
#1387500
1+
#1395000
b1011001111011101 D
b10 `
b1100100100 G"
b1010000101 F"
b1110 >"
b11011100 @"
b110100011 ?"
b101000 C"
b101000 S
b101000 Q"
b111110111011 &"
b101000 O"
b101000 \"
1&
1f
#1406000
0+
#1410000
0&
0f
#1424500
1+
#1425000
b1100100100 G"
b1010000110 F"
b1110 >"
b11011100 @"
b110100011 ?"
b101001 C"
b1110110111101110 D
b100 `
b11 _
b101001 S
b101001 Q"
b101001 \"
b101001 O"
b1011001111011101 &"
1&
1f
#1440000
0&
0f
#1443000
0+
#1455000
b111011011110111 D
b1110 `
b1101 _
b1100100100 G"
b1010000111 F"
b1110 >"
b11011100 @"
b110100011 ?"
b101010 C"
b101010 S
b101010 Q"
b1110110111101110 &"
b101010 O"
b101010 \"
1&
1f
#1461500
1+
#1470000
0&
0f
#1480000
0+
#1485000
b1100100100 G"
b1010001000 F"
b1110 >"
b11011100 @"
b110100011 ?"
b101011 C"
b1000111101111011 D
b10111 `
b110 _
b101011 S
b101011 Q"
b101011 \"
b101011 O"
b111011011110111 &"
1&
1f
#1498500
1+
#1500000
0&
0f
#1515000
b1111001110111101 D
b10 `
b0 _
b1100100100 G"
b1010001001 F"
b1110 >"
b11011100 @"
b110100011 ?"
b101100 C"
b101100 S
b101100 Q"
b1000111101111011 &"
b101100 O"
b101100 \"
1&
1f
#1517000
0+
#1530000
0&
0f
#1535500
1+
#1545000
b1100100100 G"
b1010001010 F"
b1110 >"
b11011100 @"
b110100011 ?"
b101101 C"
b1100110111011110 D
b100 `
b11 _
b101101 S
b101101 Q"
b101101 \"
b101101 O"
b1111001110111101 &"
1&
1f
#1554000
0+
#1560000
0&
0f
#1572500
1+
#1575000
b110011011101111 D
b101 `
b1101 _
b1100100100 G"
b1010001011 F"
b1110 >"
b11011100 @"
b110100011 ?"
b101110 C"
b101110 S
b101110 Q"
b1100110111011110 &"
b101110 O"
b101110 \"
1&
1f
#1590000
0&
0f
#1591000
0+
#1605000
b1100100100 G"
b1010001100 F"
b1110 >"
b11011100 @"
b110100011 ?"
b101111 C"
b1000011101110111 D
b1111 `
b110 _
b101111 S
b101111 Q"
b101111 \"
b101111 O"
b110011011101111 &"
1&
1f
#1609500
1+
#1620000
0&
0f
#1628000
0+
#1635000
b1111011110111011 D
b10111 `
b111 _
b1100100100 G"
b1010001101 F"
b1110 >"
b11011100 @"
b110100011 ?"
b110000 C"
b110000 S
b110000 Q"
b1000011101110111 &"
b110000 O"
b110000 \"
1&
1f
#1646500
1+
#1650000
0&
0f
#1665000
b1100100100 G"
b1010001110 F"
b1110 >"
b11011100 @"
b110100011 ?"
b110001 C"
b1100111111011101 D
b10 `
b110001 S
b110001 Q"
b110001 \"
b110001 O"
b1111011110111011 &"
1&
1f
0+
#1680000
0&
0f
#1683500
1+
#1695000
b1101001111101110 D
b100 `
b0 _
b1100100100 G"
b1010001111 F"
b1110 >"
b11011100 @"
b110100011 ?"
b110010 C"
b110010 S
b110010 Q"
b1100111111011101 &"
b110010 O"
b110010 \"
1&
1f
#1702000
0+
#1710000
0&
0f
#1720500
1+
#1725000
b1100100100 G"
b1010010000 F"
b1110 >"
b11011100 @"
b110100011 ?"
b110011 C"
b110100111110111 D
b1110 `
b11 _
b110011 S
b110011 Q"
b110011 \"
b110011 O"
b1101001111101110 &"
1&
1f
#1739000
0+
#1740000
0&
0f
#1755000
b1000000011111011 D
b10111 `
b1001 _
b1100100100 G"
b1010010001 F"
b1110 >"
b11011100 @"
b110100011 ?"
b110100 C"
b110100 S
b110100 Q"
b110100111110111 &"
b110100 O"
b110100 \"
1&
1f
#1757500
1+
#1770000
0&
0f
#1776000
0+
#1785000
b1100100100 G"
b1010010010 F"
b1110 >"
b11011100 @"
b110100011 ?"
b110101 C"
b1111010001111101 D
b10 `
b0 _
b110101 S
b110101 Q"
b110101 \"
b110101 O"
b1000000011111011 &"
1&
1f
#1794500
1+
#1800000
0&
0f
#1813000
0+
#1815000
b1100111000111110 D
b100 `
b100 _
b1100100100 G"
b1010010011 F"
b1110 >"
b11011100 @"
b110100011 ?"
b110110 C"
b110110 S
b110110 Q"
b1111010001111101 &"
b110110 O"
b110110 \"
1&
1f
#1830000
0&
0f
#1831500
1+
#1845000
b1100100100 G"
b1010010100 F"
b1110 >"
b11011100 @"
b110100011 ?"
b110111 C"
b110011100011111 D
b101 `
b1110 _
b110111 S
b110111 Q"
b110111 \"
b110111 O"
b1100111000111110 &"
1&
1f
#1850000
0+
#1860000
0&
0f
#1868500
1+
#1875000
b1000011110001111 D
b110 `
b111 _
b1100100100 G"
b1010010101 F"
b1110 >"
b11011100 @"
b110100011 ?"
b111000 C"
b111000 S
b111000 Q"
b110011100011111 &"
b111000 O"
b111000 \"
1&
1f
#1887000
0+
#1890000
0&
0f
#1905000
b1100100100 G"
b1010010110 F"
b1110 >"
b11011100 @"
b110100011 ?"
b111001 C"
b1111011111000111 D
b1111 `
b111001 S
b111001 Q"
b111001 \"
b111001 O"
b1000011110001111 &"
1&
1f
#1905500
1+
#1920000
0&
0f
#1924000
0+
#1935000
b1100111111100011 D
b111 `
b1100100100 G"
b1010010111 F"
b1110 >"
b11011100 @"
b110100011 ?"
b111010 C"
b111010 S
b111010 Q"
b1111011111000111 &"
b111010 O"
b111010 \"
1&
1f
#1942500
1+
#1950000
0&
0f
#1961000
0+
#1965000
b1100100100 G"
b1010011000 F"
b1110 >"
b11011100 @"
b110100011 ?"
b111011 C"
b1101001111110001 D
b11 `
b0 _
b111011 S
b111011 Q"
b111011 \"
b111011 O"
b1100111111100011 &"
1&
1f
#1979500
1+
#1980000
0&
0f
#1995000
b1101110111111000 D
b10001 `
b11 _
b1100100100 G"
b1010011001 F"
b1110 >"
b11011100 @"
b110100011 ?"
b111100 C"
b111100 S
b111100 Q"
b1101001111110001 &"
b111100 O"
b111100 \"
1&
1f
#1998000
0+
#2010000
0&
0f
#2016500
1+
#2025000
b1100100100 G"
b1010011010 F"
b1110 >"
b11011100 @"
b110100011 ?"
b111101 C"
b110111011111100 D
b11000 `
b1101 _
b111101 S
b111101 Q"
b111101 \"
b111101 O"
b1101110111111000 &"
1&
1f
#2035000
0+
#2040000
0&
0f
#2053500
1+
#2055000
b11011101111110 D
b11 `
b1110 _
b1100100100 G"
b1010011011 F"
b1110 >"
b11011100 @"
b110100011 ?"
b111110 C"
b111110 S
b111110 Q"
b110111011111100 &"
b111110 O"
b111110 \"
1&
1f
#2070000
0&
0f
#2072000
0+
#2085000
b1100100100 G"
b1010011100 F"
b1110 >"
b11011100 @"
b110100011 ?"
b111111 C"
b1101110111111 D
b101 `
b111 _
b111111 S
b111111 Q"
b111111 \"
b111111 O"
b11011101111110 &"
1&
1f
#2090500
1+
#2100000
0&
0f
#2109000
0+
#2115000
b10 e
b10 9"
b1011100111011111 D
b110 `
b1011 _
b1100100100 G"
b1010011101 F"
b1110 >"
b11011100 @"
b110100011 ?"
b1000000 C"
b10 d
b1000000 S
b1000000 Q"
b1101110111111 &"
b1000000 O"
b1000000 \"
1&
1f
#2127500
1+
#2130000
0&
0f
#2145000
b1100100100 G"
b1010011110 F"
b1110 >"
b11011100 @"
b110100011 ?"
b1000001 C"
b1110100011101111 D
b1001 _
b1000001 S
b1000001 Q"
b1000001 \"
b1000001 O"
b1011100111011111 &"
1&
1f
#2146000
0+
#2160000
0&
0f
#2164500
1+
#2175000
b1100000001110111 D
b1111 `
b1000 _
b1100100100 G"
b1010011111 F"
b1110 >"
b11011100 @"
b110100011 ?"
b1000010 C"
b1000010 S
b1000010 Q"
b1110100011101111 &"
b1000010 O"
b1000010 \"
1&
1f
#2183000
0+
#2190000
0&
0f
#2201500
1+
